escapeHtml 3
v18 4
v19 5
HashMap 6
executeUpdate 7
v12 8
v13 9
v10 10
v11 11
v16 12
v17 13
v14 14
v15 15
getHeaders 16
91 17
v77 18
Statement 19
Test 20
$ 21
22 22
23 23
( 24
Object 25
param 26
Encoder 27
0 28
add 29
v89 30
4 31
v85 32
8 33
v87 34
v81 35
v80 36
v83 37
v82 38
return 39
v69 40
get 41
== 42
v66 43
ThingInterface 44
v64 45
v63 46
PHI 47
v61 48
v60 49
v71 50
v46 51
12 52
getConstructor 53
30 54
59 55
Thing1 56
InputStream 57
v88 58
v92 59
v93 60
execute 61
v91 62
v65 63
58 64
55 65
54 66
ArrayList 67
56 68
9 69
remove 70
getBytes 71
p 72
getParameterMap 73
println 74
57 75
isEmpty 76
v78 77
:: 78
v74 79
v75 80
nextElement 81
executeQuery 82
v70 83
System 84
Enumeration 85
v73 86
N3P 87
Primordial 88
86 89
87 90
append 91
out 92
String 93
' 94
prepareStatement 95
v50 96
+ 97
getParameter 98
getSqlConnection 99
3 100
toString 101
7 102
new 103
Class 104
v62 105
metadata 106
C 107
getClassLoader 108
goto 109
PrintStream 110
equals 111
34 112
v84 113
ARBITRARY 114
put 115
org 116
[ 117
21 118
39 119
38 120
reverse 121
33 122
32 123
31 124
getTheValue 125
37 126
36 127
35 128
doPost 129
length 130
getCookies 131
helpers 132
73 133
load 134
>= 135
v7 136
misc 137
getQueryString 138
replace 139
60 140
62 141
89 142
65 143
htmlEscape 144
69 145
!= 146
42 147
v79 148
esapi 149
java 150
v90 151
v37 152
ThingFactory 153
owasp 154
v41 155
v40 156
v43 157
2 158
v45 159
v44 160
v47 161
6 162
encode 163
v48 164
v42 165
Properties 166
getHeaderNames 167
v23 168
v22 169
v21 170
v20 171
v27 172
v26 173
v25 174
v24 175
Thing2 176
StringBuilder 177
v29 178
v28 179
benchmark 180
encoder 181
v49 182
Connection 183
forName 184
v72 185
V 186
catch 187
93 188
Z 189
95 190
94 191
96 192
11 193
10 194
p0 195
p1 196
getProperty 197
Application 198
this 199
ClassLoader 200
getValue 201
v56 202
v57 203
v54 204
v55 205
v52 206
v53 207
CallableStatement 208
v51 209
encodeForHTML 210
getHeader 211
v58 212
v59 213
v30 214
v31 215
v32 216
v33 217
v34 218
v35 219
v36 220
hasMoreElements 221
v38 222
v39 223
<= 224
ResultSet 225
HttpServletResponse 226
substring 227
printStackTrace 228
B 229
getTheParameter 230
io 231
Cookie 232
null 233
Exception 234
if 235
Map 236
CHECKCAST 237
) 238
44 239
v68 240
- 241
43 242
40 243
41 244
1 245
v67 246
5 247
split 248
decodeBuffer 249
getSqlStatement 250
= 251
getParameterNames 252
HttpServletRequest 253
BASE64Encoder 254
PreparedStatement 255
STRING 256
charAt 257
I 258
createThing 259
SeparateClassRequest 260
Constructor 261
addBatch 262
reflect 263
v2 264
v3 265
v4 266
v5 267
v6 268
sql 269
v8 270
v9 271
] 272
79 273
getParameterValues 274
getResourceAsStream 275
exc 276
doSomething 277
i 278
prepareCall 279
request 280
BASE64Decoder 281
switch 282
v76 283
sun 284
} 285
getName 286