@relation feature_data

@attribute rname {SQL_INJECTION_JDBC}
@attribute sinkline numeric
@attribute sinkIdentifier {Connection.prepareStatement,Statement.execute,Statement.executeUpdate,Connection.prepareCall,Statement.addBatch,Statement.executeQuery}
@attribute sourceIdentifier {cookie.getValue,request.getHeader,request.getHeaderNames,request.getHeaders,request.getParameter,request.getParameterMap,request.getParameterNames,scr.getTheParameter,request.getParameterValues,request.getQueryString,scr.getTheValue,'new sun.misc.BASE64Decoder',thing.doSomething,'new Test',doSomething}
@attribute witnessLenght numeric
@attribute numClassesInvolved numeric
@attribute rank numeric
@attribute priority numeric
@attribute sourceLine numeric
@attribute severity numeric
@attribute confidence {HighConfidence,NormalConfidence}
@attribute numBugs {1,null}
@attribute functions numeric
@attribute conditions numeric
@attribute time numeric
@attribute label {truepositive,falsepositive}

@data
SQL_INJECTION_JDBC,54,Statement.addBatch,'new Test',2,1,12,2,48,5,HighConfidence,1,3,0,2,falsepositive
